{
  "count": 123,
  "total_pages": 10,
  "page": 1,
  "page_size": 10,
  "results": [
    {
      "id": 0,
      "name": "string",
      "args": {
        "arg_01": "value_01"
      },
      "function": 1,
      "active": true,
      "last_editor": "string",
      "last_modified": "2019-08-24T14:15:22Z"
    }
  ]
}