{
  "count": 123,
  "total_pages": 10,
  "page": 1,
  "page_size": 10,
  "results": [
    {
      "id": 0,
      "name": "string",
      "modules": {
        "ddos_protection": {
          "enabled": true
        },
        "functions": {
          "enabled": true
        },
        "network_protection": {
          "enabled": true
        },
        "waf": {
          "enabled": true
        }
      },
      "debug": false,
      "active": true,
      "last_editor": "string",
      "last_modified": "2019-08-24T14:15:22Z",
      "product_version": "string"
    }
  ]
}