{"count":9,"total_pages":1,"schema_version":3,"links":{"previous":"https://stage-api.azion.net/edge_functions?page_size=2&sort=desc","next":"https://stage-api.azion.net/edge_functions?page=3&page_size=2&sort=desc"},"results":[{"id":2995,"name":"20220124-batata","language":"javascript","code":"console.log('hey joe');","json_args":{"potato":"batata"},"function_to_run":"","initiator_type":"edge_application","active":false,"last_editor":"andre.silveira@azion.com","modified":"2022-01-24T21:23:53.049764Z","reference_count":0},{"id":3032,"name":"TestandoCLI4","language":"javascript","code":"async function handleRequest(request) {\n return new Response(\"Hello World!\",\n   {\n       status:200\n   })\n}\naddEventListener(\"fetch\", event => {\n event.respondWith(handleRequest(event.request))\n})","json_args":{"a":1,"b":2},"function_to_run":"","initiator_type":"edge_application","active":false,"last_editor":"andre.silveira@azion.com","modified":"2022-01-27T20:48:31.909030Z","reference_count":0}]}